[
  {
    "fullName": "Sel Test",
    "login": "testsel77@gmail.com",
    "password": "Qwerty123qwerty"
  },
  {
    "fullName": "PageObject Test",
    "login": "tpageobject@gmail.com",
    "password": "Pageobject1234"
  },
  {
    "fullName": "Sel1 Test1",
    "login": "testsel874@gmail.com",
    "password": "Asdfgh1234"
  },
  {
    "fullName": "Sel2 Test2",
    "login": "seltest798@gmail.com",
    "password": "Zxcvbnm1234Z"
  },
  {
    "fullName": "Sel4 Test",
    "login": "stest2631@gmail.com",
    "password": "QAZxcde132"
  }
]